{		
	"com.minichat.sevimli.videochat": 	
	{	
		
	"ads_sequence": [	
				
		"facebook_ads",
		"app_lovin"
	],	
	"more_app_url": "https://play.google.com/store/apps/developer?id=Minichat+inc", 	
	"extra_url": "https://raw.githubusercontent.com/pkbitcoding/booya/main/App_Setting.json", 	
	"ad_setting": {	
		
		"app_version_code": 12,
		
		"is_full_ads": false,
		"onesignal_id": "ae6e77d4-07e5-42ba-a8ef-6b396d1bfe11", 
		"ads_loading_text": "Ads will loading...",
		"seconds_require_triger_reward": 25,	
		"global_intra_interval_click": 1,
		"interstitial_ad_time_interval": 0
	},	
	"app_update": {	
		"is_popup_dialog": true,
		"is_update_require": false,
		"package_id": "com.adult.iptv.hot.playlist", 
		"website_url": "https://play.google.com/store/apps/details?id=com.adult.iptv.hot.playlist", 
		"app_icon": "https://play-lh.googleusercontent.com/puoKL06VOKbYoXPB-O2JfueIgMDuy2vGWdSZ7f7XsGG9idZQ7Sr42E54Uv-M5a5fqXo=w240-h480-rw",
		"updated_version_code": 50,
		"title": "Enjoy Free Live Channels",
		"default_message": "Don't feel Alone."
	},	
	"exit_dialog": {	
		"is_exit_require": true,
		"exit_title": "Exit",
		"exit_message": "Do you want to exit from App?"
	},   
	"reward_dialog": {	
		"is_reward_require": true,
		"reward_message": "Watch Reward ads for More Random Video call"
   	 },	
	"About_App": {	
		"is_override": false,
		"is_about_app": true,
		"about_title": "sevimli - canlı görüntülü sohbet", 
		"about_message": "Random Video calling app",
		"registration_detail": "sevimli - canlı görüntülü sohbet", 
		"version_detail": "version : 1.0.0"
	},	
	"rate_app": {	
		"is_rate_app": true,
		"package_id": "com.minichat.sevimli.videochat", 
		"rate_app_url": "https://play.google.com/store/apps/details?id=com.minichat.sevimli.videochat", 
		"rate_message": "Please Rate us and promote us."
	},	
	"share_app": {	
		"is_share_app": true,
		"share_title": "Share link url :https://play.google.com/store/apps/details?id=com.minichat.sevimli.videochat", 
		"share_message": "Now anyone can getsevimli - canlı görüntülü sohbet app : https://play.google.com/store/apps/details?id=com.minichat.sevimli.videochat" 
	},	
	"privacy_policy": {	
		"is_privacy_policy": true,
		"is_system_browser": true,
		"privacy_policy": "https://pages.flycricket.io/sevimli-canli-goru/privacy.html" 
	},	
	"terms_of_use": {	
		"is_terms_of_use": true,
		"is_system_browser": true,
		"terms_of_use": "https://pages.flycricket.io/sevimli-canli-goru/privacy.html" 
	},	
	"error_report": {	
		"is_error_report_support": true,
		"email_id": "mailto:minichat.inc@gmail.com"
	},	
	"feedback_support": {	
		"is_feedback_support": true,
		"email_id":"mailto:minichat.inc@gmail.com",
		"feedback_title": "Feedback on sevimli - canlı görüntülü sohbet",
		"feedback_message": "Hi,\n\n\nYour Feedback sevimli - canlı görüntülü sohbet! I would like to give you some feedback:",
		"email_subject": "Feedback on sevimli - canlı görüntülü sohbet",
		"email_message": "Hi,\n\n\nYour Feedback sevimli - canlı görüntülü sohbet! I would like to give you some feedback:"
		
	},	
	"google_ads": {	
		"banner_ad_unit_id_android": "ca-app-pub-6114254035947288/1987495126", 
		"interstitial_ad_unit_id_android": "ca-app-pub-6114254035947288/5528388536", 
		"app_open_ad_unit_id_android": "ca-app-pub-6114254035947288/9223272722", 
		"native_ads_unit_id_android": "/6499/example/native", 
		"rewared_ads_unit_id": "/6499/example/rewarded", 
		"native_video_ads_unit_id_android": "/6499/example/native-video", 
		"is_banner_ads": true,
		"is_open_ads": true,
		"is_interstitial_ads": true,
		"is_rewared_ads": false,
		"is_native_ads": false,
		"no_of_click_interstitial": 5
	},
	
	"facebook_ads": {	
		"banner_ad_unit_id_android": "363467132337131_363467382337106", 
		"interstitial_ad_unit_id_android": "363467132337131_363467515670426", 
		"rewared_ads_unit_id": "363467132337131_363467515670426", 
		"native_ads_unit_id_android": "363467132337131_363467625670415", 
		"is_banner_ads": true,
		"is_interstitial_ads": true,
		"is_rewared_ads": true,
		"is_native_ads": true
	},
	  
	"custom_ads": {	
		"qureka_link": "https://490.go.qureka.com/intro/question",
		"is_quraka_banner": true,
		"is_quraka_intera": true,
		"close_button_to_direct_web": true,
		"quraka_intra_image": [
		"https://github.com/pragneshpalsanabitcoding/image_quraka/blob/main/360X640_1.png?raw=true",
		"https://github.com/pragneshpalsanabitcoding/image_quraka/blob/main/360X640_2.png?raw=true",
		"https://github.com/pragneshpalsanabitcoding/image_quraka/blob/main/360X640_3.png?raw=true",
		"https://github.com/pragneshpalsanabitcoding/image_quraka/blob/main/360X640_4.png?raw=true",
		"https://github.com/pragneshpalsanabitcoding/image_quraka/blob/main/360X640_5.png?raw=true",
		"https://github.com/pragneshpalsanabitcoding/image_quraka/blob/main/360X640_6.png?raw=true"
	],	
	"quraka_banner_image": [	
		"https://github.com/pragneshpalsanabitcoding/image_quraka/blob/main/2.jpg?raw=true",
		"https://github.com/pragneshpalsanabitcoding/image_quraka/blob/main/3.jpg?raw=true",
		"https://github.com/pragneshpalsanabitcoding/image_quraka/blob/main/320x50.jpg?raw=true",
		"https://github.com/pragneshpalsanabitcoding/image_quraka/blob/main/4.jpg?raw=true",
		"https://github.com/pragneshpalsanabitcoding/image_quraka/blob/main/5.jpg?raw=true",
		"https://github.com/pragneshpalsanabitcoding/image_quraka/blob/main/6.jpg?raw=true"
	]	
	},	
	"app_lovin": {
		
		"is_unlimited_ads": true,
		
		"id_unit_banner": "38b8244228b7cc85",
		"id_unit_intra": "ab02272286df1988",
		"id_unit_native": "",
		"id_unit_native_multiple": 
		{
     			        "small":"",
      		        	"medium":"",
    			        "manual":"edbb3602cb2b2640"
  		  },
		"rewared_ads_unit_id": "2bd0fcf754372d13",
		"is_banner_ads": true,
		"is_interstitial_ads": true,
		"is_native_ads": true,
		"is_rewared_ads": true
   	 },
		
	"unity_ads": {	
		"game_id": "4737797",
		"is_intra_ads": true,
		"is_banner_ads": true,
		"is_rewared_ads": true
	}	
	}	
}		
